{
  "extends": [
    "tslint:latest",
    "tslint-eslint-rules",
    "tslint-config-prettier"
  ],
  "rules": {
    "interface-name": [true, "never-prefix"],
    "ordered-imports": false,
    "object-literal-sort-keys": false,
    "no-var-requires": false,
    "no-implicit-dependencies": false
  }
}

